{
    "fluentMethods": true,
    "relationships": [
        {
            "relationshipType": "many-to-one",
            "relationshipName": "profile",
            "otherEntityName": "profile",
            "otherEntityField": "id"
        }
    ],
    "fields": [
        {
            "fieldName": "markdown",
            "fieldType": "String",
            "fieldValidateRules": [
                "required"
            ]
        }
    ],
    "changelogDate": "20170311113721",
    "entityTableName": "comment",
    "dto": "mapstruct",
    "pagination": "no",
    "service": "serviceImpl",
    "angularJSSuffix": "mySuffix"
}