{
  "name" : "crawl",
  "fs" : {
    "url" : "/documents",
    "index_content": "true",
    "add_filesize" : "true",
    "remove_deleted" : "true",
    "update_rate" : "15s"
  },
  "elasticsearch" : {
    "nodes" : [
      { "host" : "esnode", "port" : 9200 }
    ]
  }
}
